ext4_common.c:49:26:ext4fs_get_group_descriptor	0	static
ext4_common.c:109:10:ext4fs_sb_get_free_blocks	12	static
ext4_common.c:116:6:ext4fs_sb_set_free_blocks	0	static
ext4_common.c:122:10:ext4fs_bg_get_free_blocks	0	static
ext4_common.c:153:10:ext4fs_bg_get_block_id	12	static
ext4_common.c:163:10:ext4fs_bg_get_inode_id	12	static
ext4_common.c:174:10:ext4fs_bg_get_inode_table_id	12	static
ext4_common.c:185:10:ext4fs_div_roundup	16	static
ext4_common.c:194:6:put_ext4	88	dynamic
ext4_common.c:305:5:ext4fs_set_block_bmap	12	static
ext4_common.c:341:6:ext4fs_reset_block_bmap	12	static
ext4_common.c:371:5:ext4fs_set_inode_bmap	0	static
ext4_common.c:396:6:ext4fs_reset_inode_bmap	0	static
ext4_common.c:417:10:ext4fs_checksum_update	24	static
ext4_common.c:958:10:ext4fs_get_new_blk_no	48	static
ext4_common.c:1087:5:ext4fs_get_new_inode_no	48	static
ext4_common.c:1493:6:ext4fs_allocate_blocks	64	static
ext4_common.c:1586:5:ext4fs_read_inode	120	static
ext4_common.c:736:5:ext4fs_iget	8	static
ext4_common.c:1617:10:read_allocated_block	40	static
ext4_common.c:935:5:ext4fs_filename_unlink	48	static
ext4_common.c:628:12:search_dir	48	static
ext4_common.c:752:5:ext4fs_get_parent_inode_num	176	static
ext4_common.c:473:5:ext4fs_update_parent_dentry	64	static
ext4_common.c:1972:6:ext4fs_reinit_global	8	static
ext4_common.c:1993:6:ext4fs_close	16	static
ext4_common.c:2007:5:ext4fs_iterate_dir	80	dynamic
ext4_common.c:2174:12:ext4fs_find_file1	80	dynamic
ext4_common.c:2274:5:ext4fs_find_file	24	static
ext4_common.c:2298:5:ext4fs_open	16	static
ext4_common.c:2328:5:ext4fs_mount	16	static
