efi_image_loader.c:167:13:efi_set_code_and_data_type	8	static
efi_image_loader.c:55:14:efi_print_image_info	16	static
efi_image_loader.c:76:6:efi_print_image_infos	24	static
efi_image_loader.c:155:13:invalidate_icache_all	0	static
efi_image_loader.c:199:7:efi_load_pe	88	static
