efi_console.c:557:20:efi_key_notify	0	static
efi_console.c:172:28:efi_cout_test_string	8	static
efi_console.c:108:28:efi_cout_reset	8	static
efi_console.c:381:28:efi_cin_reset	8	static
efi_console.c:357:28:efi_cout_enable_cursor	8	static
efi_console.c:344:28:efi_cout_set_cursor_position	16	static
efi_console.c:332:28:efi_cout_clear_screen	8	static
efi_console.c:314:28:efi_cout_set_attribute	16	static
efi_console.c:116:28:efi_cout_output_string	24	dynamic
efi_console.c:567:20:efi_console_timer_notify	8	static
efi_console.c:282:28:efi_cout_set_mode	8	static
efi_console.c:261:28:efi_cout_query_mode	16	static
efi_console.c:401:13:5	16	static
efi_console.c:436:28:efi_cin_read_key_stroke	8	static
efi_console.c:582:5:efi_console_register	48	static
