efi_disk.c:162:28:efi_disk_flush_blocks	8	static
efi_disk.c:41:28:efi_disk_reset	8	static
efi_disk.c:228:21:4	32	static
efi_disk.c:92:28:efi_disk_read_blocks	24	static
efi_disk.c:127:28:efi_disk_write_blocks	24	static
efi_disk.c:187:1:efi_fs_from_path	24	static
efi_disk.c:309:5:efi_disk_create_partitions	208	static
efi_disk.c:355:14:efi_disk_register	96	static
