eeprom.c:208:12:parse_numeric_param	16	static
eeprom.c:227:12:parse_i2c_bus_addr	16	static
eeprom.c:62:12:eeprom_write_enable	0	static
eeprom.c:67:6:eeprom_init	0	static
eeprom.c:180:5:eeprom_read	32	static
eeprom.c:190:5:eeprom_write	40	static
eeprom.c:346:5:do_eeprom	40	static
