omap_hsmmc.c:1380:12:omap_hsmmc_getwp	8	static
omap_hsmmc.c:1365:12:omap_hsmmc_getcd	8	static
omap_hsmmc.c:797:13:mmc_reset_controller_fsm	16	static
omap_hsmmc.c:954:12:omap_hsmmc_send_cmd	32	static
omap_hsmmc.c:1814:12:omap_hsmmc_ofdata_to_platdata	24	static
omap_hsmmc.c:1331:12:omap_hsmmc_set_ios	32	static
omap_hsmmc.c:1874:12:omap_hsmmc_probe	32	static
omap_hsmmc.c:269:6:mmc_init_stream	16	static
omap_hsmmc.c:687:13:omap_hsmmc_send_init_stream	8	static
