ahci.c:352:13:ahci_print_info	104	static
ahci.c:976:12:ahci_start_ports	16	static
ahci.c:632:12:4	32	static
ahci.c:691:12:ata_scsiop_inquiry	640	static
ahci.c:756:12:ata_scsiop_read_write	120	static
ahci.c:53:22:ahci_port_base	0	static
ahci.c:117:12:ahci_link_up	16	static
ahci.c:147:5:ahci_reset	16	static
ahci.c:174:12:ahci_host_init	48	static
ahci.c:996:6:scsi_low_level_init	0	static
ahci.c:1037:5:ahci_start_ports_dm	8	static
ahci.c:1073:5:ahci_init	16	static
ahci.c:1090:5:ahci_init_dm	16	static
ahci.c:1097:13:scsi_init	0	static
ahci.c:1209:5:scsi_exec	32	static
ahci.c:1214:12:scsi_bus_reset	0	static
