ti-musb.c:205:12:ti_musb_wrapper_bind	40	static
ti-musb.c:67:13:ti_musb_set_phy_power	8	static
ti-musb.c:176:12:ti_musb_host_ofdata_to_platdata	120	static
ti-musb.c:167:12:ti_musb_host_remove	8	static
ti-musb.c:144:12:ti_musb_host_probe	16	static
