fdt_region.c:156:12:fdt_add_region	16	static
fdt_region.c:30:5:fdt_find_regions	200	static
fdt_region.c:217:5:fdt_add_alias_regions	48	static
fdt_region.c:433:5:fdt_next_region	104	static
fdt_region.c:336:5:fdt_first_region	20	static
