spl_fit.c:29:12:0	32	static
spl_fit.c:83:12:spl_fit_get_image_node	24	static
spl_fit.c:168:12:spl_load_fit_image	72	static
spl_fit.c:284:12:spl_fit_append_fdt	72	static
spl_fit.c:351:5:spl_load_simple_fit	128	static
