uclass.c:22:16:uclass_find	0	static
uclass.c:104:5:uclass_destroy	8	static
uclass.c:138:5:uclass_get	16	static
uclass.c:151:13:uclass_get_name	16	static
uclass.c:160:16:uclass_get_by_name	16	static
uclass.c:174:5:uclass_find_device	24	static
uclass.c:197:5:uclass_find_first_device	16	static
uclass.c:214:5:uclass_find_next_device	0	static
uclass.c:227:5:uclass_find_device_by_name	32	static
uclass.c:251:5:uclass_find_device_by_seq	32	static
uclass.c:280:5:uclass_find_device_by_of_offset	24	static
uclass.c:304:5:uclass_find_device_by_ofnode	24	static
uclass.c:369:5:uclass_get_device_by_driver	24	static
uclass.c:389:5:uclass_get_device_tail	16	static
uclass.c:404:5:uclass_get_device	16	static
uclass.c:414:5:uclass_get_device_by_name	16	static
uclass.c:425:5:uclass_get_device_by_seq	24	static
uclass.c:442:5:uclass_get_device_by_of_offset	16	static
uclass.c:453:5:uclass_get_device_by_ofnode	16	static
uclass.c:507:5:uclass_first_device	16	static
uclass.c:519:5:uclass_first_device_err	8	static
uclass.c:532:5:uclass_next_device	16	static
uclass.c:544:5:uclass_first_device_check	8	static
uclass.c:558:5:uclass_next_device_check	8	static
uclass.c:571:5:uclass_bind_device	8	static
uclass.c:615:5:uclass_resolve_seq	24	static
uclass.c:646:5:uclass_pre_probe_device	8	static
uclass.c:667:5:uclass_post_probe_device	8	static
