hashtable.c:522:12:cmpkey	0	static
hashtable.c:427:13:1	16	static
hashtable.c:717:12:2	24	static
hashtable.c:530:12:match_string	32	dynamic
hashtable.c:560:12:match_entry	568	static
hashtable.c:99:5:hcreate_r	16	static
hashtable.c:138:6:hdestroy_r	24	static
hashtable.c:200:5:hmatch_r	32	static
hashtable.c:270:5:hsearch_r	64	static
hashtable.c:441:5:hdelete_r	64	static
hashtable.c:589:9:hexport_r	64	dynamic
hashtable.c:779:5:himport_r	96	dynamic
hashtable.c:973:5:hwalk_r	24	static
