strto.c:17:20:_parse_integer_fixup_radix	8	static
strto.c:33:15:simple_strtoul	32	static
strto.c:53:5:strict_strtoul	32	static
strto.c:77:6:simple_strtol	8	static
strto.c:85:15:ustrtoul	8	static
strto.c:131:20:simple_strtoull	40	static
strto.c:108:20:ustrtoull	8	static
strto.c:150:6:trailing_strtoln	16	static
strto.c:166:6:trailing_strtol	0	static
