time.c:60:15:get_tbclk	8	static
time.c:117:25:tick_to_time	24	static
time.c:77:18:get_ticks	16	static
time.c:126:12:timer_init	0	static
time.c:132:14:get_timer	8	static
time.c:137:30:timer_get_us	8	static
time.c:150:13:__udelay	32	static
time.c:162:6:udelay	16	static
