f_dfu.c:761:12:dfu_set_alt	0	static
f_dfu.c:774:12:__dfu_get_alt	0	static
f_dfu.c:782:13:dfu_disable	0	static
f_dfu.c:820:5:dfu_add	16	static
f_dfu.c:584:1:dfu_handle	24	static
f_dfu.c:168:13:dnload_request_flush	8	static
f_dfu.c:155:13:dnload_request_complete	16	static
f_dfu.c:735:13:dfu_unbind	24	static
f_dfu.c:689:12:dfu_bind	32	static
f_dfu.c:239:12:6	16	static
f_dfu.c:180:12:handle_getstatus	24	static
f_dfu.c:540:12:state_dfu_error	0	static
f_dfu.c:450:12:state_dfu_manifest_sync	16	static
f_dfu.c:416:12:state_dfu_dnload_idle	16	static
f_dfu.c:396:12:state_dfu_dnbusy	0	static
f_dfu.c:373:12:state_dfu_dnload_sync	0	static
f_dfu.c:290:12:state_app_detach	0	static
f_dfu.c:263:12:state_app_idle	0	static
f_dfu.c:503:12:state_dfu_upload_idle	16	static
f_dfu.c:477:12:state_dfu_manifest	16	static
f_dfu.c:313:12:state_dfu_idle	16	static
