musb_core.c:968:13:musb_generic_disable	0	static
musb_core.c:1182:1:fifo_setup	32	static
musb_core.c:216:6:musb_write_fifo	12	static
musb_core.c:258:6:musb_read_fifo	12	static
musb_core.c:320:6:musb_load_testpacket	8	static
musb_core.c:900:5:musb_start	16	static
musb_core.c:995:6:musb_stop	8	static
musb_core.c:1554:13:musb_interrupt	32	static
musb_core.c:1913:1:musb_init_controller	176	static
