timer.c:45:5:timer_init	0	static
timer.c:63:7:get_timer_masked	8	static
timer.c:58:7:get_timer	8	static
timer.c:81:6:__udelay	8	static
timer.c:100:20:get_ticks	8	static
timer.c:109:7:get_tbclk	0	static
