mvtwsi.c:192:33:twsi_get_base	8	static
mvtwsi.c:447:13:__twsi_i2c_set_bus_speed	32	static
mvtwsi.c:680:13:twsi_i2c_set_bus_speed	8	static
mvtwsi.c:381:12:5	16	static
mvtwsi.c:673:13:twsi_i2c_init	24	static
mvtwsi.c:265:12:9	24	static
mvtwsi.c:529:12:3	16	static
mvtwsi.c:688:12:twsi_i2c_probe	16	static
mvtwsi.c:709:12:twsi_i2c_write	32	static
mvtwsi.c:694:12:twsi_i2c_read	40	static
