nand_base.c:131:13:nand_release_device	8	static
nand_base.c:145:9:nand_read_byte	0	static
nand_base.c:158:16:nand_read_byte16	0	static
nand_base.c:170:12:nand_read_word	0	static
nand_base.c:206:13:nand_write_byte	16	static
nand_base.c:220:13:nand_write_byte16	16	static
nand_base.c:285:6:nand_write_buf	8	static
nand_base.c:300:6:nand_read_buf	8	static
nand_base.c:315:6:nand_write_buf16	8	static
nand_base.c:331:6:nand_read_buf16	8	static
nand_base.c:955:12:nand_setup_data_interface	24	static
nand_base.c:1237:12:nand_read_page_raw_syndrome	32	static
nand_base.c:1279:12:nand_read_page_swecc	64	static
nand_base.c:1899:12:nand_read_oob_std	16	static
nand_base.c:1914:12:nand_read_oob_syndrome	48	static
nand_base.c:1950:12:nand_write_oob_std	24	static
nand_base.c:1974:12:nand_write_oob_syndrome	64	static
nand_base.c:2199:12:nand_write_page_raw_syndrome	32	static
nand_base.c:2241:12:nand_write_page_swecc	56	static
nand_base.c:2270:12:nand_write_page_hwecc	40	static
nand_base.c:2369:12:nand_write_page_syndrome	32	static
nand_base.c:2837:12:single_erase	16	static
nand_base.c:2974:13:nand_sync	0	static
nand_base.c:3034:12:nand_onfi_set_features	24	static
nand_base.c:3064:12:nand_onfi_get_features	24	static
nand_base.c:3083:13:nand_set_defaults	0	static
nand_base.c:3236:12:nand_setup_read_retry_micron	16	static
nand_base.c:2419:12:nand_write_page	48	static
nand_base.c:346:12:nand_block_bad	24	static
nand_base.c:1100:12:nand_check_erased_buf	20	static
nand_base.c:2306:12:nand_write_subpage_hwecc	56	static
nand_base.c:504:12:nand_block_isreserved	0	static
nand_base.c:866:12:nand_wait	24	static
nand_base.c:3135:13:sanitize_string	8	static
nand_base.c:484:12:nand_check_wp	16	static
nand_base.c:1218:12:nand_read_page_raw	24	static
nand_base.c:2179:12:nand_write_page_raw	24	static
nand_base.c:183:13:nand_select_chip	8	static
nand_base.c:523:12:nand_block_checkbad	24	static
nand_base.c:2989:12:nand_block_isbad	24	static
nand_base.c:2465:17:nand_fill_oob	24	static
nand_base.c:2524:12:nand_do_write_ops	96	static
nand_base.c:2687:12:nand_write	64	static
nand_base.c:1615:17:nand_transfer_oob	24	static
nand_base.c:3152:12:18	12	static
nand_base.c:2653:12:panic_nand_write	64	static
nand_base.c:572:13:20	16	static
nand_base.c:546:6:nand_wait_ready	16	static
nand_base.c:1688:12:nand_do_read_ops	104	static
nand_base.c:2132:12:nand_read_oob	80	static
nand_base.c:1876:12:nand_read	64	static
nand_base.c:596:13:nand_command	24	static
nand_base.c:700:13:nand_command_lp	24	static
nand_base.c:1055:5:nand_reset	16	static
nand_base.c:2712:12:nand_do_write_oob	56	static
nand_base.c:2794:12:nand_write_oob	40	static
nand_base.c:393:12:nand_default_block_markbad	80	static
nand_base.c:1170:5:nand_check_erased_ecc_chunk	32	static
nand_base.c:1549:12:nand_read_page_syndrome	64	static
nand_base.c:1325:12:nand_read_subpage	64	static
nand_base.c:1429:12:nand_read_page_hwecc	64	static
nand_base.c:1491:12:nand_read_page_hwecc_oob_first	72	static
nand_base.c:2867:5:nand_erase_nand	48	static
nand_base.c:3012:12:nand_block_markbad	96	static
nand_base.c:2854:12:nand_erase	0	static
nand_base.c:3758:24:nand_get_flash_type	56	static
nand_base.c:4005:5:nand_scan_ident	40	static
nand_base.c:4092:5:nand_check_ecc_caps	32	static
nand_base.c:4154:5:nand_match_ecc_req	72	static
nand_base.c:4238:5:nand_maximize_ecc	56	static
nand_base.c:4364:5:nand_scan_tail	24	static
nand_base.c:4661:5:nand_scan	8	static
