board.c:696:13:setup_environment	88	static
board.c:83:6:i2c_init_board	8	static
board.c:194:5:board_init	16	static
board.c:258:5:dram_init	8	static
board.c:503:5:board_mmc_init	8	static
board.c:605:5:g_dnl_board_usb_cable_connected	24	static
board.c:640:6:get_board_serial	8	static
board.c:760:5:misc_init_r	24	static
board.c:790:5:ft_board_setup	8	static
